{
    "key": "group_5b04999de2d50",
    "title": "Calendar",
    "fields": [
        {
            "key": "field_5ba425c206df6",
            "label": "API Base URL",
            "name": "api_base_url",
            "type": "url",
            "instructions": "This url will be the TNQ consumer site URL.",
            "required": 1,
            "conditional_logic": 0,
            "wrapper": {
                "width": "",
                "class": "",
                "id": ""
            },
            "default_value": "https:\/\/www.tropicalnorthqueensland.org.au",
            "placeholder": "https:\/\/www.tropicalnorthqueensland.org.au"
        },
        {
            "key": "field_5b0499a461daa",
            "label": "posts per page",
            "name": "posts_per_page",
            "type": "number",
            "instructions": "Enter the number of results per page.",
            "required": 1,
            "conditional_logic": 0,
            "wrapper": {
                "width": "30",
                "class": "",
                "id": ""
            },
            "default_value": 12,
            "placeholder": "",
            "prepend": "",
            "append": "",
            "min": "",
            "max": "",
            "step": ""
        }
    ],
    "location": [
        [
            {
                "param": "page_template",
                "operator": "==",
                "value": "calendar.php"
            }
        ]
    ],
    "menu_order": 0,
    "position": "acf_after_title",
    "style": "default",
    "label_placement": "top",
    "instruction_placement": "label",
    "hide_on_screen": "",
    "active": 1,
    "description": "",
    "modified": 1537494189
}