{
    "key": "group_599a155943e11",
    "title": "Event Post Type",
    "location": [
        [
            {
                "param": "post_type",
                "operator": "==",
                "value": "event"
            }
        ]
    ],
    "menu_order": 0,
    "position": "normal",
    "style": "default",
    "label_placement": "top",
    "instruction_placement": "label",
    "hide_on_screen": "",
    "active": 1,
    "description": "",
    "modified": 1537315637,
    "fields": [
        {
            "key": "field_5b286fba07ddd",
            "label": "Date",
            "name": "",
            "type": "tab",
            "instructions": "",
            "required": 0,
            "conditional_logic": 0,
            "wrapper": {
                "width": "",
                "class": "",
                "id": ""
            },
            "placement": "top",
            "endpoint": 0
        },
        {
            "key": "field_59b8b78535477",
            "label": "date type",
            "name": "date_type",
            "type": "select",
            "instructions": "Choose the date type you want to use.",
            "required": 0,
            "conditional_logic": 0,
            "wrapper": {
                "width": "33",
                "class": "",
                "id": ""
            },
            "choices": {
                "single-date": "Single Date",
                "date-range": "Date Range",
                "month-year": "Month and Year Only",
                "month-tba": "Month TBA"
            },
            "default_value": [
                "single-date"
            ],
            "allow_null": 0,
            "multiple": 0,
            "ui": 0,
            "ajax": 0,
            "return_format": "value",
            "placeholder": ""
        },
        {
            "key": "field_5966f6384d8fd",
            "label": "start date of event",
            "name": "time_of_event",
            "type": "date_picker",
            "instructions": "When will the event occur?",
            "required": 1,
            "conditional_logic": 0,
            "wrapper": {
                "width": "33",
                "class": "",
                "id": ""
            },
            "display_format": "j F Y",
            "return_format": "j F Y",
            "first_day": 1
        },
        {
            "key": "field_59b8b7c63fa40",
            "label": "end date of event",
            "name": "end_time_of_event",
            "type": "date_picker",
            "instructions": "When will the event end?",
            "required": 0,
            "conditional_logic": [
                [
                    {
                        "field": "field_59b8b78535477",
                        "operator": "==",
                        "value": "date-range"
                    }
                ]
            ],
            "wrapper": {
                "width": "33",
                "class": "",
                "id": ""
            },
            "display_format": "j F Y",
            "return_format": "j F Y",
            "first_day": 1
        },
        {
            "key": "field_5b286ff807dde",
            "label": "Calendar Details",
            "name": "",
            "type": "tab",
            "instructions": "",
            "required": 0,
            "conditional_logic": 0,
            "wrapper": {
                "width": "",
                "class": "",
                "id": ""
            },
            "placement": "top",
            "endpoint": 0
        },
        {
            "key": "field_5afcef8f135e6",
            "label": "colour",
            "name": "colour",
            "type": "select",
            "instructions": "Choose a colour to represent this event in the calendar.",
            "required": 0,
            "conditional_logic": 0,
            "wrapper": {
                "width": "33",
                "class": "",
                "id": ""
            },
            "choices": {
                "178b85": "Green",
                "ce975c": "Brown",
                "913908": "Dark Brown"
            },
            "default_value": [
                "178b85"
            ],
            "allow_null": 0,
            "multiple": 0,
            "ui": 0,
            "ajax": 0,
            "return_format": "value",
            "placeholder": ""
        },
        {
            "key": "field_5afe0896d5b11",
            "label": "contact person",
            "name": "contact_person",
            "type": "text",
            "instructions": "Add the name of a contact person for this event.",
            "required": 0,
            "conditional_logic": 0,
            "wrapper": {
                "width": "33",
                "class": "",
                "id": ""
            },
            "default_value": "",
            "placeholder": "",
            "prepend": "",
            "append": "",
            "maxlength": ""
        },
        {
            "key": "field_5afcf89449841",
            "label": "general location",
            "name": "general_location",
            "type": "text",
            "instructions": "Enter the general location of the event. This is used in the calendar.",
            "required": 0,
            "conditional_logic": 0,
            "wrapper": {
                "width": "33",
                "class": "",
                "id": ""
            },
            "default_value": "",
            "placeholder": "",
            "prepend": "",
            "append": "",
            "maxlength": ""
        },
        {
            "key": "field_5b28706b07ddf",
            "label": "Event Details",
            "name": "",
            "type": "tab",
            "instructions": "",
            "required": 0,
            "conditional_logic": 0,
            "wrapper": {
                "width": "",
                "class": "",
                "id": ""
            },
            "placement": "top",
            "endpoint": 0
        },
        {
            "key": "field_599a25a110809",
            "label": "is accessible",
            "name": "is_accessible",
            "type": "checkbox",
            "instructions": "Check if event has accessible facilities",
            "required": 0,
            "conditional_logic": 0,
            "wrapper": {
                "width": "50",
                "class": "",
                "id": ""
            },
            "choices": {
                "true": "Has accessible features"
            },
            "allow_custom": 0,
            "save_custom": 0,
            "default_value": [],
            "layout": "vertical",
            "toggle": 0,
            "return_format": "value"
        },
        {
            "key": "field_599a155948138",
            "label": "event email",
            "name": "prod_email",
            "type": "text",
            "instructions": "Enter a contact phone number for this event.",
            "required": 0,
            "conditional_logic": 0,
            "wrapper": {
                "width": "50",
                "class": "",
                "id": ""
            },
            "default_value": "",
            "placeholder": "",
            "prepend": "",
            "append": "",
            "maxlength": ""
        },
        {
            "key": "field_599a155948141",
            "label": "event phone",
            "name": "prod_phone",
            "type": "text",
            "instructions": "Enter a contact phone number for this event.",
            "required": 0,
            "conditional_logic": 0,
            "wrapper": {
                "width": "50",
                "class": "",
                "id": ""
            },
            "default_value": "",
            "placeholder": "",
            "prepend": "",
            "append": "",
            "maxlength": ""
        },
        {
            "key": "field_599a155948149",
            "label": "event website",
            "name": "prod_website",
            "type": "text",
            "instructions": "Enter the website address for this event.",
            "required": 0,
            "conditional_logic": 0,
            "wrapper": {
                "width": "50",
                "class": "",
                "id": ""
            },
            "default_value": "",
            "placeholder": "",
            "prepend": "",
            "append": "",
            "maxlength": ""
        },
        {
            "key": "field_599a15594815a",
            "label": "address line 1",
            "name": "prod_address_line_1",
            "type": "text",
            "instructions": "Enter address details to appear on line 1 for this event.",
            "required": 0,
            "conditional_logic": 0,
            "wrapper": {
                "width": "50",
                "class": "",
                "id": ""
            },
            "default_value": "",
            "placeholder": "",
            "prepend": "",
            "append": "",
            "maxlength": ""
        },
        {
            "key": "field_599a15594816a",
            "label": "address line 2",
            "name": "prod_address_line_2",
            "type": "text",
            "instructions": "Enter address details to appear on line 2 for this event.",
            "required": 0,
            "conditional_logic": 0,
            "wrapper": {
                "width": "50",
                "class": "",
                "id": ""
            },
            "default_value": "",
            "placeholder": "",
            "prepend": "",
            "append": "",
            "maxlength": ""
        },
        {
            "key": "field_599a155948178",
            "label": "area",
            "name": "prod_area",
            "type": "text",
            "instructions": "Enter location for this event.",
            "required": 0,
            "conditional_logic": 0,
            "wrapper": {
                "width": "50",
                "class": "",
                "id": ""
            },
            "default_value": "",
            "placeholder": "",
            "prepend": "",
            "append": "",
            "maxlength": ""
        },
        {
            "key": "field_599a15594818c",
            "label": "city",
            "name": "prod_city",
            "type": "text",
            "instructions": "Enter the city this event will take place in.",
            "required": 0,
            "conditional_logic": 0,
            "wrapper": {
                "width": "50",
                "class": "",
                "id": ""
            },
            "default_value": "",
            "placeholder": "",
            "prepend": "",
            "append": "",
            "maxlength": ""
        },
        {
            "key": "field_599a155948199",
            "label": "suburb",
            "name": "prod_suburb",
            "type": "text",
            "instructions": "Enter the suburb this event will take place in.",
            "required": 0,
            "conditional_logic": 0,
            "wrapper": {
                "width": "50",
                "class": "",
                "id": ""
            },
            "default_value": "",
            "placeholder": "",
            "prepend": "",
            "append": "",
            "maxlength": ""
        },
        {
            "key": "field_599a1559481a3",
            "label": "state",
            "name": "prod_state",
            "type": "text",
            "instructions": "Enter the state this event will take place in.",
            "required": 0,
            "conditional_logic": 0,
            "wrapper": {
                "width": "50",
                "class": "",
                "id": ""
            },
            "default_value": "",
            "placeholder": "",
            "prepend": "",
            "append": "",
            "maxlength": ""
        },
        {
            "key": "field_599a1559481ac",
            "label": "postcode",
            "name": "prod_postcode",
            "type": "text",
            "instructions": "Enter the post code this event will take place in.",
            "required": 0,
            "conditional_logic": 0,
            "wrapper": {
                "width": "50",
                "class": "",
                "id": ""
            },
            "default_value": "",
            "placeholder": "",
            "prepend": "",
            "append": "",
            "maxlength": ""
        },
        {
            "key": "field_599a1559481b4",
            "label": "country",
            "name": "prod_country",
            "type": "text",
            "instructions": "Enter the country this event will take place in.",
            "required": 0,
            "conditional_logic": 0,
            "wrapper": {
                "width": "50",
                "class": "",
                "id": ""
            },
            "default_value": "",
            "placeholder": "",
            "prepend": "",
            "append": "",
            "maxlength": ""
        },
        {
            "key": "field_5b171f913cf3a",
            "label": "event button",
            "name": "event_button",
            "type": "clone",
            "instructions": "",
            "required": 0,
            "conditional_logic": 0,
            "wrapper": {
                "width": "",
                "class": "",
                "id": ""
            },
            "clone": [
                "group_5aebbf12348aa"
            ],
            "display": "seamless",
            "layout": "block",
            "prefix_label": 0,
            "prefix_name": 0
        },
        {
            "key": "field_5b287138af139",
            "label": "Social Media",
            "name": "",
            "type": "tab",
            "instructions": "",
            "required": 0,
            "conditional_logic": 0,
            "wrapper": {
                "width": "",
                "class": "",
                "id": ""
            },
            "placement": "top",
            "endpoint": 0
        },
        {
            "key": "field_599a1559481c4",
            "label": "url facebook",
            "name": "url_facebook",
            "type": "text",
            "instructions": "",
            "required": 0,
            "conditional_logic": 0,
            "wrapper": {
                "width": "25",
                "class": "",
                "id": ""
            },
            "default_value": "",
            "placeholder": "",
            "prepend": "",
            "append": "",
            "maxlength": ""
        },
        {
            "key": "field_599a1559481cc",
            "label": "url instagram",
            "name": "url_instagram",
            "type": "text",
            "instructions": "",
            "required": 0,
            "conditional_logic": 0,
            "wrapper": {
                "width": "25",
                "class": "",
                "id": ""
            },
            "default_value": "",
            "placeholder": "",
            "prepend": "",
            "append": "",
            "maxlength": ""
        },
        {
            "key": "field_599a1559481d5",
            "label": "url youtube",
            "name": "url_youtube",
            "type": "text",
            "instructions": "",
            "required": 0,
            "conditional_logic": 0,
            "wrapper": {
                "width": "25",
                "class": "",
                "id": ""
            },
            "default_value": "",
            "placeholder": "",
            "prepend": "",
            "append": "",
            "maxlength": ""
        },
        {
            "key": "field_599a1559481dd",
            "label": "url twitter",
            "name": "url_twitter",
            "type": "text",
            "instructions": "",
            "required": 0,
            "conditional_logic": 0,
            "wrapper": {
                "width": "25",
                "class": "",
                "id": ""
            },
            "default_value": "",
            "placeholder": "",
            "prepend": "",
            "append": "",
            "maxlength": ""
        },
        {
            "key": "field_5b287165af13a",
            "label": "Optional Sections",
            "name": "",
            "type": "tab",
            "instructions": "",
            "required": 0,
            "conditional_logic": 0,
            "wrapper": {
                "width": "",
                "class": "",
                "id": ""
            },
            "placement": "top",
            "endpoint": 0
        },
        {
            "key": "field_5b172056437d9",
            "label": "flexible content",
            "name": "flexible_content",
            "type": "flexible_content",
            "instructions": "Choose sections to add",
            "required": 0,
            "conditional_logic": 0,
            "wrapper": {
                "width": "",
                "class": "",
                "id": ""
            },
            "layouts": {
                "5b1722481986b": {
                    "key": "5b1722481986b",
                    "name": "text_image_2",
                    "label": "text image",
                    "display": "block",
                    "sub_fields": [
                        {
                            "key": "field_5b1722581986c",
                            "label": "text and image",
                            "name": "text_and_image",
                            "type": "clone",
                            "instructions": "",
                            "required": 0,
                            "conditional_logic": 0,
                            "wrapper": {
                                "width": "",
                                "class": "",
                                "id": ""
                            },
                            "clone": [
                                "group_5aeba4e2129f5"
                            ],
                            "display": "seamless",
                            "layout": "block",
                            "prefix_label": 0,
                            "prefix_name": 0
                        }
                    ],
                    "min": "",
                    "max": ""
                },
                "5b1624e689ad8": {
                    "key": "5b1624e689ad8",
                    "name": "info_banner",
                    "label": "Info banner",
                    "display": "block",
                    "sub_fields": [
                        {
                            "key": "field_5b172057437dc",
                            "label": "information banner",
                            "name": "information_banner",
                            "type": "clone",
                            "instructions": "",
                            "required": 0,
                            "conditional_logic": 0,
                            "wrapper": {
                                "width": "",
                                "class": "",
                                "id": ""
                            },
                            "clone": [
                                "group_5b16242c28ed4"
                            ],
                            "display": "seamless",
                            "layout": "block",
                            "prefix_label": 0,
                            "prefix_name": 0
                        }
                    ],
                    "min": "",
                    "max": ""
                }
            },
            "button_label": "Add Section",
            "min": "",
            "max": ""
        }
    ]
}