<svg xmlns="http://www.w3.org/2000/svg" xmlns:xlink="http://www.w3.org/1999/xlink" viewBox="0 0 50 50" version="1.1" width="500" height="500">
<g id="surface1">
<path style=" " d="M 39.3125 -0.0625 C 39.054688 -0.0742188 38.785156 -0.0585938 38.53125 -0.03125 C 38.023438 0.0273438 37.535156 0.167969 37.0625 0.40625 C 36.226563 0.828125 35.550781 1.617188 35.125 2.625 C 29.492188 8.144531 20.019531 14.132813 13.5 15.59375 C 10.207031 14.195313 7.433594 14.628906 5.6875 16.21875 C 3.90625 17.84375 3.183594 20.308594 3.21875 22.625 C 2.972656 23.199219 2.210938 24.425781 1.5 26 C 0.769531 27.613281 0.101563 29.636719 0.09375 31.875 C 0.09375 31.886719 0.09375 31.894531 0.09375 31.90625 C 0.046875 35.839844 0.820313 40.265625 2.9375 43.8125 C 5.0625 47.367188 8.683594 50 13.90625 50 C 24.058594 50 27.953125 42.894531 31.09375 39.9375 C 31.09375 39.925781 31.09375 39.917969 31.09375 39.90625 C 32.527344 38.515625 35.179688 37.292969 37.9375 36.21875 C 40.695313 35.144531 43.535156 34.210938 45.5 33.0625 C 47.246094 32.027344 48.648438 30.597656 49.375 28.84375 C 50.101563 27.089844 50.105469 25.015625 49.21875 22.90625 C 49.074219 22.578125 48.765625 22.351563 48.40625 22.3125 C 47.542969 22.210938 46.738281 22.316406 46 22.53125 C 45.746094 22.289063 45.449219 22.027344 45.09375 21.8125 C 44.675781 21.894531 44.757813 22.199219 44.96875 22.9375 C 44.1875 23.308594 43.496094 23.792969 42.875 24.3125 C 42.589844 24.066406 42.265625 23.808594 41.90625 23.59375 C 41.574219 23.757813 41.699219 24.207031 41.90625 25.15625 C 41.414063 25.625 40.957031 26.082031 40.5625 26.46875 C 40.300781 26.722656 40.054688 26.925781 39.84375 27.09375 C 39.546875 26.742188 39.1875 26.355469 38.6875 26 C 38.121094 26.09375 38.28125 26.488281 38.46875 27.78125 C 37.414063 28.171875 36.472656 28.449219 35.5625 28.65625 C 35.320313 28.453125 35.085938 28.203125 34.8125 28 C 34.382813 28.085938 34.394531 28.335938 34.46875 28.90625 C 33.949219 29.003906 33.410156 29.074219 32.875 29.15625 C 32.59375 28.832031 32.136719 28.257813 31.40625 27.6875 C 30.847656 27.78125 30.972656 28.179688 31.15625 29.4375 C 30.617188 29.523438 30.101563 29.605469 29.5 29.71875 C 29.226563 29.773438 28.980469 29.84375 28.71875 29.90625 L 28.5 29.6875 C 28.25 29.75 28.160156 29.867188 28.125 30.03125 C 23.710938 31.148438 21.011719 32.871094 18.8125 34.03125 C 17.398438 34.777344 16.207031 35.261719 14.78125 35.375 C 16.425781 34.394531 17.773438 33.148438 18.90625 31.9375 C 20.535156 30.195313 21.851563 28.621094 23.0625 27.90625 C 23.535156 28.777344 23.65625 29.160156 24.09375 28.8125 C 24.230469 28.269531 24.265625 27.792969 24.3125 27.375 C 25.171875 27.03125 25.992188 26.660156 26.78125 26.25 C 27.292969 27.171875 27.46875 27.542969 28 27.1875 C 28.152344 26.574219 28.246094 25.957031 28.28125 25.40625 C 29.257813 24.816406 30.164063 24.171875 31 23.5 C 31.417969 24.355469 31.574219 24.660156 32.09375 24.3125 C 32.242188 23.574219 32.304688 22.902344 32.34375 22.3125 C 33.078125 21.617188 33.757813 20.898438 34.34375 20.15625 C 35.488281 21.238281 35.835938 21.757813 36.3125 21.09375 C 36.238281 19.707031 35.929688 18.683594 35.75 18.09375 C 36.050781 17.566406 36.308594 17.03125 36.53125 16.5 C 36.535156 16.492188 36.527344 16.476563 36.53125 16.46875 C 36.683594 16.117188 36.886719 15.78125 37.15625 15.46875 C 38.109375 16.539063 38.339844 17.066406 38.8125 16.5 C 38.890625 15.5625 38.785156 14.75 38.6875 14.125 C 39.199219 13.722656 39.753906 13.289063 40.34375 12.8125 C 41.097656 13.679688 41.363281 14.042969 41.8125 13.59375 C 41.890625 12.808594 41.820313 12.128906 41.75 11.5625 C 42.269531 11.03125 42.777344 10.421875 43.21875 9.71875 C 43.554688 10.171875 43.765625 10.328125 44.09375 10 C 44.152344 9.261719 44.074219 8.632813 44 8.125 C 44.480469 6.957031 44.824219 5.589844 44.90625 3.9375 C 44.910156 3.785156 44.875 3.636719 44.8125 3.5 C 43.980469 1.644531 42.066406 0.375 40.0625 0.03125 C 39.8125 -0.0117188 39.570313 -0.0507813 39.3125 -0.0625 Z M 39.21875 1.9375 C 39.378906 1.945313 39.550781 1.972656 39.71875 2 C 40.996094 2.21875 42.339844 3.167969 42.875 4.15625 C 42.621094 7.761719 41.226563 9.460938 39.5625 10.875 C 37.847656 12.332031 35.667969 13.390625 34.6875 15.71875 C 33.132813 19.472656 28.925781 23.53125 22.96875 25.75 C 22.960938 25.753906 22.945313 25.746094 22.9375 25.75 L 22.9375 25.78125 C 20.722656 26.601563 19.25 28.6875 17.46875 30.59375 C 15.675781 32.511719 13.648438 34.300781 10.6875 34.9375 C 10.242188 35.035156 9.917969 35.425781 9.902344 35.882813 C 9.886719 36.339844 10.1875 36.746094 10.625 36.875 C 14.597656 38.039063 17.195313 37.160156 19.75 35.8125 C 22.296875 34.46875 24.953125 32.707031 29.875 31.6875 C 29.886719 31.683594 29.894531 31.691406 29.90625 31.6875 C 33.511719 31.007813 36.074219 30.960938 40.09375 29.3125 C 40.824219 29.003906 41.378906 28.484375 41.96875 27.90625 C 42.558594 27.328125 43.160156 26.675781 43.8125 26.09375 C 44.933594 25.09375 46.140625 24.476563 47.53125 24.40625 C 47.945313 25.773438 47.976563 27.019531 47.53125 28.09375 C 47.007813 29.363281 45.953125 30.480469 44.5 31.34375 C 42.867188 32.296875 40.035156 33.246094 37.21875 34.34375 C 34.402344 35.441406 31.585938 36.660156 29.71875 38.46875 C 26.0625 41.910156 23.152344 48 13.90625 48 C 9.328125 48 6.507813 45.878906 4.65625 42.78125 C 2.804688 39.683594 2.046875 35.566406 2.09375 31.90625 C 2.09375 30.058594 2.675781 28.320313 3.34375 26.84375 C 4.011719 25.367188 4.742188 24.234375 5.125 23.28125 C 5.179688 23.140625 5.199219 22.992188 5.1875 22.84375 C 5.097656 20.945313 5.769531 18.839844 7.03125 17.6875 C 8.292969 16.535156 10.140625 16.0625 13.25 17.59375 C 13.300781 17.617188 13.351563 17.640625 13.40625 17.65625 C 15.398438 18.242188 18.5625 18.3125 18.5625 18.3125 C 19.113281 18.328125 19.578125 17.894531 19.59375 17.34375 C 19.609375 16.792969 19.175781 16.328125 18.625 16.3125 C 18.625 16.3125 18.003906 16.226563 17.84375 16.21875 C 24.359375 13.722656 31.6875 8.820313 36.59375 4 C 36.707031 3.886719 36.792969 3.746094 36.84375 3.59375 C 37.097656 2.808594 37.492188 2.425781 37.96875 2.1875 C 38.324219 2.007813 38.742188 1.917969 39.21875 1.9375 Z M 39.1875 3.28125 C 38.449219 3.414063 37.90625 4.5 37.90625 4.5 C 37.40625 5.199219 38.210938 5.8125 39.3125 5.3125 C 40.3125 4.914063 41.09375 4.09375 41.09375 4.09375 C 41.09375 4.09375 40.398438 3.511719 39.5 3.3125 C 39.386719 3.289063 39.292969 3.261719 39.1875 3.28125 Z M 9.96875 18.59375 C 9.546875 18.625 9.09375 18.730469 8.59375 18.90625 C 7.195313 19.40625 6.898438 21.988281 7.5 22.6875 C 7.898438 23.289063 8.90625 23.605469 9.90625 23.40625 C 10.304688 23.304688 8.8125 19.90625 8.8125 19.90625 C 8.8125 19.90625 10.511719 20.511719 11.8125 21.8125 C 12.210938 20.914063 12.699219 19.707031 12.5 19.40625 C 12.125 18.957031 11.230469 18.496094 9.96875 18.59375 Z "/>
</g>
</svg>