﻿<svg xmlns="http://www.w3.org/2000/svg" xmlns:xlink="http://www.w3.org/1999/xlink" viewBox="0 0 50 50" version="1.1" width="500" height="500">
<g id="surface1">
<path style=" " d="M 19.84375 0.15625 C 19.550781 0.136719 19.246094 0.175781 18.96875 0.25 C 18.433594 0.390625 17.964844 0.738281 17.625 1.21875 L 17.59375 1.1875 L 17.5625 1.25 L 14.71875 5 L 9.78125 5.09375 L 9.71875 5.09375 L 9.65625 5.125 C 8.574219 5.28125 7.574219 6.0625 7.40625 7.25 L 6.6875 11.9375 L 2.5 14.34375 L 2.46875 14.34375 L 2.4375 14.375 C 1.515625 14.988281 1.023438 16.15625 1.34375 17.28125 L 1.34375 17.3125 L 2.90625 21.875 L 0.375 25.9375 L 0.375 25.96875 C -0.273438 26.972656 -0.136719 28.269531 0.6875 29.09375 L 0.6875 29.125 L 4.15625 32.46875 L 3.8125 37.3125 L 3.8125 37.40625 C 3.8125 38.488281 4.429688 39.628906 5.625 39.96875 L 10.28125 41.34375 L 12.1875 45.78125 L 12.21875 45.84375 C 12.695313 46.878906 13.835938 47.546875 15 47.25 L 15 47.28125 L 15.0625 47.25 L 19.75 46.28125 L 23.375 49.28125 L 23.4375 49.34375 C 23.949219 49.6875 24.476563 49.8125 25 49.8125 C 25.566406 49.8125 26.132813 49.628906 26.5625 49.34375 L 26.625 49.28125 L 30.25 46.28125 L 35 47.28125 L 35.0625 47.28125 C 36.132813 47.433594 37.332031 46.902344 37.8125 45.78125 L 39.71875 41.34375 L 44.28125 40.0625 C 45.421875 39.738281 46.183594 38.648438 46.0625 37.4375 L 46.09375 37.4375 L 46.09375 37.34375 L 45.71875 32.59375 L 49.125 29.28125 L 49.1875 29.21875 L 49.15625 29.1875 C 50.015625 28.402344 50.203125 27.050781 49.5 26.09375 L 49.5625 26.0625 L 47 21.96875 L 48.53125 17.4375 L 48.5625 17.40625 L 48.5625 17.375 C 48.882813 16.25 48.390625 15.082031 47.46875 14.46875 L 47.4375 14.4375 L 47.40625 14.4375 L 43.21875 12.09375 L 42.5 7.34375 C 42.332031 6.179688 41.378906 5.203125 40.125 5.1875 L 40.09375 5.1875 L 35.3125 5.03125 L 32.5 1.21875 L 32.5 1.1875 L 32.46875 1.15625 C 31.710938 0.246094 30.445313 -0.109375 29.375 0.40625 C 29.363281 0.410156 29.355469 0.402344 29.34375 0.40625 L 25 2.46875 L 20.75 0.40625 L 20.71875 0.40625 L 20.6875 0.375 C 20.414063 0.257813 20.136719 0.175781 19.84375 0.15625 Z M 19.5 2.15625 C 19.621094 2.128906 19.757813 2.15625 19.90625 2.21875 L 24.5625 4.5 L 25 4.71875 L 25.4375 4.5 L 30.21875 2.1875 L 30.25 2.1875 C 30.367188 2.128906 30.675781 2.167969 30.90625 2.40625 C 30.917969 2.421875 30.925781 2.421875 30.9375 2.4375 L 34 6.59375 L 34.28125 6.96875 L 34.75 7 L 40.0625 7.1875 L 40.09375 7.1875 C 40.222656 7.1875 40.46875 7.429688 40.5 7.65625 L 41.3125 12.84375 L 41.375 13.34375 L 41.8125 13.5625 L 46.34375 16.125 C 46.625 16.3125 46.703125 16.535156 46.625 16.8125 L 44.96875 21.78125 L 44.8125 22.21875 L 45.0625 22.625 L 47.84375 27.125 L 47.875 27.1875 L 47.9375 27.25 C 48.117188 27.464844 48.113281 27.519531 47.875 27.71875 L 47.8125 27.78125 L 44 31.46875 L 43.65625 31.8125 L 43.6875 32.28125 L 44.09375 37.5625 L 44.09375 37.59375 L 44.125 37.65625 C 44.144531 37.800781 43.945313 38.058594 43.71875 38.125 L 38.71875 39.53125 L 38.28125 39.65625 L 38.09375 40.09375 L 35.96875 45 C 35.855469 45.265625 35.679688 45.347656 35.375 45.3125 L 35.34375 45.3125 L 30.21875 44.21875 L 29.75 44.125 L 29.375 44.4375 L 25.4375 47.65625 C 25.265625 47.769531 25.234375 47.8125 25 47.8125 C 24.921875 47.8125 24.648438 47.714844 24.5625 47.65625 L 20.625 44.4375 L 20.25 44.125 L 19.78125 44.21875 L 14.59375 45.3125 L 14.5625 45.34375 L 14.53125 45.34375 C 14.339844 45.398438 14.164063 45.308594 14.03125 45 L 11.90625 40.09375 L 11.71875 39.6875 L 11.28125 39.53125 L 6.1875 38.03125 C 5.984375 37.972656 5.8125 37.726563 5.8125 37.40625 L 6.1875 32.1875 L 6.21875 31.71875 L 5.90625 31.375 L 2.09375 27.6875 C 1.921875 27.515625 1.902344 27.257813 2.03125 27.0625 L 2.03125 27.03125 L 2.0625 27.03125 L 4.84375 22.53125 L 5.09375 22.125 L 4.9375 21.6875 L 3.25 16.71875 L 3.25 16.6875 C 3.1875 16.425781 3.292969 16.210938 3.5625 16.03125 L 8.09375 13.46875 L 8.5 13.21875 L 8.59375 12.75 L 9.375 7.5625 L 9.375 7.53125 C 9.40625 7.320313 9.621094 7.140625 9.9375 7.09375 L 15.21875 7 L 15.6875 7 L 16 6.59375 L 19.1875 2.40625 L 19.21875 2.375 L 19.21875 2.34375 C 19.277344 2.257813 19.378906 2.183594 19.5 2.15625 Z M 24.6875 12.1875 C 24.589844 12.582031 23.617188 14.128906 21.3125 14.1875 L 21.3125 15.6875 L 24.1875 15.6875 L 24.1875 24.1875 L 26.3125 24.1875 L 26.3125 12.1875 Z M 12 28 L 12 35 L 13.59375 35 L 13.59375 32.09375 L 16.59375 32.09375 L 16.59375 30.90625 L 13.59375 30.90625 L 13.59375 29.3125 L 17 29.3125 L 17 28 Z M 18.1875 28 L 18.1875 35 L 19.6875 35 L 19.6875 32.1875 L 21.1875 32.1875 C 22.386719 32.1875 22.398438 33.085938 22.5 34.1875 C 22.601563 34.488281 22.585938 34.800781 22.6875 35 L 24.1875 35 C 23.886719 34.601563 23.90625 33.886719 23.90625 33.6875 C 23.90625 31.988281 23.105469 31.789063 22.90625 31.6875 C 23.304688 31.488281 24 31.105469 24 29.90625 C 24 28.40625 22.605469 28 21.90625 28 Z M 25.59375 28 L 25.59375 35 L 30.90625 35 L 30.90625 33.6875 L 27.09375 33.6875 L 27.09375 32 L 30.5 32 L 30.5 30.8125 L 27.09375 30.8125 L 27.09375 29.3125 L 30.8125 29.3125 L 30.8125 28 Z M 32.6875 28 L 32.6875 35 L 38 35 L 38 33.6875 L 34.1875 33.6875 L 34.1875 32 L 37.59375 32 L 37.59375 30.8125 L 34.1875 30.8125 L 34.1875 29.3125 L 37.90625 29.3125 L 37.90625 28 Z M 19.6875 29.1875 L 21.40625 29.1875 C 21.804688 29.1875 22.5 29.289063 22.5 30.1875 C 22.5 31.085938 21.804688 31.1875 21.40625 31.1875 L 19.6875 31.1875 Z "/>
</g>
</svg>